db.users.find({lastName:{$in:["Hawking","Doe"]}})
db.users.find({courses:{$in:["HTML","React"]}})
db.users.find({$or:[{firstName:"Neil"},{age:25}]})

db.users.find({$or:[{firstName:"Neil"},{age:{$gt:30}]})
db.users.find({$and:[{age:{$ne:82}},{age:{$ne:76}}]})
failed to initialize mongoworker reason connect failed

Showing firstname,lastname,contact,with no ID
db.users.find({
	firstName: "Jane"
},
{
	firstName:1,
	lastName:1,
	contact:1.
	_id:0
}).pretty();

Showing Embedded Find
db.users.find({
	firstName: "Jane"
},
{
	firstName:1,
	lastName:1,
	"contact.phone":1
}).pretty();


db.users.find({
	firstName: "Jane"
},
{
	"contact.phone":0
}).pretty();

case sensistive
db.users.find({firstName:{$regex:'N'}}).pretty()

case insensitive = the $options made it case insensitive
db.users.find({firstName:{$regex:'j', $options: '$i'}}).pretty()

//[Section] Comparison Query Operators

        // $gt/$gte operator
        /*
            - Allows us to find documents that have field number values greater than or equal to a specified value.
            - Syntax
                db.collectionName.find({ field : { $gt : value } });
                db.collectionName.find({ field : { $gte : value } });
        */
        db.users.find({ age : { $gt : 50 } }).pretty();
        db.users.find({ age : { $gte : 50 } }).pretty();

        // $lt/$lte operator
        /*
            - Allows us to find documents that have field number values less than or equal to a specified value.
            - Syntax
                db.collectionName.find({ field : { $lt : value } });
                db.collectionName.find({ field : { $lte : value } });
        */
        db.users.find({ age : { $lt : 50 } }).pretty();
        db.users.find({ age : { $lte : 50 } }).pretty();

        // $ne operator
        /*
            - Allows us to find documents that have field number values not equal to a specified value.
            - Syntax
                db.collectionName.find({ field : { $ne : value } });
        */
        db.users.find({ age : { $ne: 82 } }).pretty();

        // $in operator
        /*
            - Allows us to find documents with specific match critieria one field using different values.
            - Syntax
                db.collectionName.find({ field : { $in : value } });
        */
        db.users.find( { lastName: { $in: [ "Hawking", "Doe" ] } } ).pretty();
        db.users.find( { courses: { $in: [ "HTML", "React" ] } } ).pretty();

        // [Section] Logical Query Operators

        // $or operator
        /*
            - Allows us to find documents that match a single criteria from multiple provided search criteria.
            - Syntax
                db.collectionName.find({ $or: [ { fieldA: valueB }, { fieldB: valueB } ] });
        */
        multiple field value pairs
        db.users.find( { $or: [ { firstName: "Neil" }, { age: "25" } ] } ).pretty()

        db.users.find( { $or: [ { firstName: "Neil" }, { age: { $gt: 30 } } ] } ).pretty()

        // $and operator
        /*
            - Allows us to find documents matching multiple criteria in a single field.
            - Syntax
                db.collectionName.find({ $and: [ { fieldA: valueB }, { fieldB: valueB } ] });
        */
        db.users.find({ $and: [ { age : { $ne: 82 } }, { age : { $ne: 76 } }] }).pretty();

        Field Projection
        /*
            - Retrieving documents are common operations that we do and by default MongoDB queries return the whole document as a response.

            - When dealing with complex data structures, there might be instances when fields are not useful for the query that we are trying to accomplish.

            - To help with readability of the values returned, we can include/exclude fields from the response.
        */

        // Inclusion
        /*
            - Allows us to include/add specific fields only when retrieving documents.
            - The value provided is 1 to denote that the field is being included.
            - Syntax
                db.users.find({criteria},{field: 1})
        */
        db.users.find( 
            { 
                firstName: "Jane" 
            }, 
            { 
                firstName: 1, 
                lastName: 1,
                contact: 1 
            }


// Exclusion
        /*
            - Allows us to exclude/remove specific fields only when retrieving documents.
            - The value provided is 0 to denote that the field is being included.
            - Syntax
                db.users.find({criteria},{field: 1})
        */
        db.users.find( 
            { 
                firstName: "Jane" 
            }, 
            { 
                contact: 0, 
                department: 0 
            } 
        ).pretty();

        // Suppressing the ID field
        /*
            - Allows us to exclude the "_id" field when retrieving documents.
            - When using field projection, field inclusion and exclusion may not be used at the same time.
            - Excluding the "_id" field is the only exception to this rule.
            - Syntax
                db.users.find({criteria},{_id: 0})
        */
        db.users.find( 
            { 
                firstName: "Jane" 
            }, 
            { 
                firstName: 1, 
                lastName: 1,
                contact: 1,
                _id: 0
            }
        ).pretty();

        // Returning Specific Fields in Embedded Documents
        db.users.find( 
            { 
                firstName: "Jane" 
            }, 
            { 
                firstName: 1, 
                lastName: 1,
                "contact.phone": 1
            }
        ).pretty();

        // Supressing Specific Fields in embedded documents
        db.users.find( 
            { 
                firstName: "Jane" 
            }, 
            { 
                "contact.phone": 0
            }
        ).pretty();

        // $regex operator
        /*
            - Allows us to find documents that match a specific string pattern using regular expressions.
            - Syntax
                db.users.find({ field: $regex: 'pattern', $options: '$optionValue' });
        */

        // Case sensitive query
        db.users.find({ firstName: { $regex: 'N' } }).pretty();

        // Case insensitive query
        db.users.find({ firstName: { $regex: 'j', $options: '$i' } }).pretty();


        db.users.find({$and: [{department:'HR'}, {}])
         db.users.find({ $and: [ { age : { $ne: 82 } }, { age : { $ne: 76 } }] }).pretty();